…
Preview the `gapminder` dataset with

``` r
gapminder
```

    ## # A tibble: 1,704 x 6
    ##    country      year      pop continent lifeExp gdpPercap
    ##    <chr>       <dbl>    <dbl> <chr>       <dbl>     <dbl>
    ##  1 Afghanistan  1952  8425333 Asia         28.8      779.
    ##  2 Afghanistan  1957  9240934 Asia         30.3      821.
    ##  3 Afghanistan  1962 10267083 Asia         32.0      853.
    ##  4 Afghanistan  1967 11537966 Asia         34.0      836.
    ##  5 Afghanistan  1972 13079460 Asia         36.1      740.
    ##  6 Afghanistan  1977 14880372 Asia         38.4      786.
    ##  7 Afghanistan  1982 12881816 Asia         39.9      978.
    ##  8 Afghanistan  1987 13867957 Asia         40.8      852.
    ##  9 Afghanistan  1992 16317921 Asia         41.7      649.
    ## 10 Afghanistan  1997 22227415 Asia         41.8      635.
    ## # … with 1,694 more rows
…
## `mutate()` adds new columns that are a function of existing columns

  - Take `gapminder` and then add a new column `gdp` from `pop` times
    `gdpPercap`.

<!-- end list -->

``` r
gapminder %>%
  mutate(gdp = pop * gdpPercap)
```

    ## # A tibble: 1,704 x 7
    ##    country      year      pop continent lifeExp gdpPercap          gdp
    ##    <chr>       <dbl>    <dbl> <chr>       <dbl>     <dbl>        <dbl>
    ##  1 Afghanistan  1952  8425333 Asia         28.8      779.  6567086330.
    ##  2 Afghanistan  1957  9240934 Asia         30.3      821.  7585448670.
    ##  3 Afghanistan  1962 10267083 Asia         32.0      853.  8758855797.
    ##  4 Afghanistan  1967 11537966 Asia         34.0      836.  9648014150.
    ##  5 Afghanistan  1972 13079460 Asia         36.1      740.  9678553274.
    ##  6 Afghanistan  1977 14880372 Asia         38.4      786. 11697659231.
    ##  7 Afghanistan  1982 12881816 Asia         39.9      978. 12598563401.
    ##  8 Afghanistan  1987 13867957 Asia         40.8      852. 11820990309.
    ##  9 Afghanistan  1992 16317921 Asia         41.7      649. 10595901589.
    ## 10 Afghanistan  1997 22227415 Asia         41.8      635. 14121995875.
    ## # … with 1,694 more rows

## `select()` picks columns based on their names

  - Take `gapminder` and then select only `country`, `year`, and
    `lifeExp`.

<!-- end list -->

``` r
gapminder %>% 
  select(country, year, lifeExp)
```

    ## # A tibble: 1,704 x 3
    ##    country      year lifeExp
    ##    <chr>       <dbl>   <dbl>
    ##  1 Afghanistan  1952    28.8
    ##  2 Afghanistan  1957    30.3
    ##  3 Afghanistan  1962    32.0
    ##  4 Afghanistan  1967    34.0
    ##  5 Afghanistan  1972    36.1
    ##  6 Afghanistan  1977    38.4
    ##  7 Afghanistan  1982    39.9
    ##  8 Afghanistan  1987    40.8
    ##  9 Afghanistan  1992    41.7
    ## 10 Afghanistan  1997    41.8
    ## # … with 1,694 more rows
…
    ## [1] "country"   "year"      "pop"       "continent" "lifeExp"   "gdpPercap"

  - Now take `gapminder`, and then drop each irrelevant column with
    `-column`.

<!-- end list -->

``` r
gapminder %>% 
  select(-continent, -pop, -gdpPercap)
```

    ## # A tibble: 1,704 x 3
    ##    country      year lifeExp
    ##    <chr>       <dbl>   <dbl>
    ##  1 Afghanistan  1952    28.8
    ##  2 Afghanistan  1957    30.3
    ##  3 Afghanistan  1962    32.0
    ##  4 Afghanistan  1967    34.0
    ##  5 Afghanistan  1972    36.1
    ##  6 Afghanistan  1977    38.4
    ##  7 Afghanistan  1982    39.9
    ##  8 Afghanistan  1987    40.8
    ##  9 Afghanistan  1992    41.7
    ## 10 Afghanistan  1997    41.8
    ## # … with 1,694 more rows

## `filter()` pick rows based on their values

  - Take `gapminder`, then `filter()` with the logical expression `year
    == 2002`.

<!-- end list -->

``` r
gapminder %>% 
  filter(year == 2002)
```

    ## # A tibble: 142 x 6
    ##    country      year       pop continent lifeExp gdpPercap
    ##    <chr>       <dbl>     <dbl> <chr>       <dbl>     <dbl>
    ##  1 Afghanistan  2002  25268405 Asia         42.1      727.
    ##  2 Albania      2002   3508512 Europe       75.7     4604.
    ##  3 Algeria      2002  31287142 Africa       71.0     5288.
    ##  4 Angola       2002  10866106 Africa       41.0     2773.
    ##  5 Argentina    2002  38331121 Americas     74.3     8798.
    ##  6 Australia    2002  19546792 Oceania      80.4    30688.
    ##  7 Austria      2002   8148312 Europe       79.0    32418.
    ##  8 Bahrain      2002    656397 Asia         74.8    23404.
    ##  9 Bangladesh   2002 135656790 Asia         62.0     1136.
    ## 10 Belgium      2002  10311970 Europe       78.3    30486.
    ## # … with 132 more rows
…
## `arrange()` changes the ordering of the rows

Where and when was the lowest life expectancy?

  - Take `gapminder`, then arrange it by (ascending) `lifeExp`.

<!-- end list -->

``` r
gapminder %>%
  arrange(lifeExp) %>% 
  select(country, year, lifeExp)
```

    ## # A tibble: 1,704 x 3
    ##    country       year lifeExp
    ##    <chr>        <dbl>   <dbl>
    ##  1 Rwanda        1992    23.6
    ##  2 Afghanistan   1952    28.8
    ##  3 Gambia        1952    30  
    ##  4 Angola        1952    30.0
    ##  5 Sierra Leone  1952    30.3
    ##  6 Afghanistan   1957    30.3
    ##  7 Cambodia      1977    31.2
    ##  8 Mozambique    1952    31.3
    ##  9 Sierra Leone  1957    31.6
    ## 10 Burkina Faso  1952    32.0
    ## # … with 1,694 more rows

Where and when was the highest life expectancy?

  - Take `gapminder`, then arrange it by descending `lifeExp` (see
    `?desc()`).

<!-- end list -->

``` r
gapminder %>%
  arrange(desc(lifeExp)) %>% 
  select(country, year, lifeExp)
```

    ## # A tibble: 1,704 x 3
    ##    country          year lifeExp
    ##    <chr>           <dbl>   <dbl>
    ##  1 Japan            2007    82.6
    ##  2 Hong Kong China  2007    82.2
    ##  3 Japan            2002    82  
    ##  4 Iceland          2007    81.8
    ##  5 Switzerland      2007    81.7
    ##  6 Hong Kong China  2002    81.5
    ##  7 Australia        2007    81.2
    ##  8 Spain            2007    80.9
    ##  9 Sweden           2007    80.9
    ## 10 Israel           2007    80.7
    ## # … with 1,694 more rows
…
